[
  "\t",
  "\n",
  " ",
  "  ",
  "\"",
  "'",
  "''",
  "'-(",
  "'-)",
  "'Cause",
  "'Cos",
  "'Coz",
  "'Cuz",
  "'S",
  "'X",
  "'Xxx",
  "'Xxxxx",
  "'am",
  "'bout",
  "'cause",
  "'cos",
  "'coz",
  "'cuz",
  "'d",
  "'em",
  "'ll",
  "'m",
  "'nuff",
  "'re",
  "'s",
  "'ve",
  "'x",
  "'xx",
  "'xxx",
  "'xxxx",
  "'y",
  "(",
  "(((",
  "(*>",
  "(*_*)",
  "(-8",
  "(-:",
  "(-;",
  "(-_-)",
  "(-d",
  "(._.)",
  "(:",
  "(;",
  "(=",
  "(>_<)",
  "(^_^)",
  "(o:",
  "(x:",
  "(x_x)",
  "(\u00ac_\u00ac)",
  "(\u0ca0_\u0ca0)",
  "(\u256f\u00b0\u25a1\u00b0\uff09\u256f\ufe35\u253b\u2501\u253b",
  ")",
  ")))",
  ")-:",
  ")/\u00af",
  "):",
  "*",
  ",",
  "-",
  "-((",
  "-))",
  "--",
  "-/",
  "-0",
  "-3",
  "-8",
  "-D",
  "-O",
  "-P",
  "-X",
  "-_-",
  "-__-",
  "-d",
  "-o",
  "-p",
  "-x",
  "-|",
  ".",
  ".C.",
  ".D.",
  ".E.",
  ".G.",
  ".H.",
  ".J.",
  ".M.",
  ".Y.",
  "._.",
  ".e.",
  ".g.",
  ".m.",
  ".s.",
  "/",
  "/11",
  "/12",
  "/13",
  "/18",
  "/19",
  "/20",
  "/21",
  "/3",
  "/d",
  "/or",
  "0",
  "0.0",
  "0.o",
  "000",
  "01",
  "01/01/20",
  "015",
  "016",
  "017",
  "018",
  "019",
  "02.03.2018",
  "020",
  "021",
  "022",
  "025",
  "026",
  "027",
  "028",
  "029",
  "03",
  "03.2015",
  "030",
  "031",
  "04.06.2020",
  "04.2022",
  "04/12/2025",
  "04/12/2026",
  "04/12/2027",
  "04/12/2028",
  "04/12/2029",
  "04/12/2030",
  "04/12/2031",
  "05/21",
  "06/08/2021",
  "07/08/2020",
  "07/21",
  "09/08/20",
  "09/09/21",
  "09/21",
  "0PM",
  "0_0",
  "0_o",
  "0am",
  "0pm",
  "1",
  "1/2/2021",
  "1/2/21",
  "1/3",
  "10",
  "10:30am",
  "10PM",
  "10a.m",
  "10a.m.",
  "10p.m",
  "10p.m.",
  "10pm",
  "11",
  "11AM",
  "11a.m",
  "11a.m.",
  "11am",
  "11p.m",
  "11p.m.",
  "12",
  "12/9/19",
  "12/9/2020",
  "12a.m",
  "12a.m.",
  "12p.m",
  "12p.m.",
  "13pm",
  "15pm",
  "16pm",
  "18/18",
  "18/9/21",
  "19/19",
  "19/8",
  "19/8/19",
  "19pm",
  "19th",
  "1AM",
  "1a.m",
  "1a.m.",
  "1p.m",
  "1p.m.",
  "1st",
  "2",
  "2/12",
  "2/13",
  "2/14/20",
  "2/15/20",
  "2/16/20",
  "2/17/21",
  "2/20",
  "2/27/2021",
  "2/3/21",
  "20",
  "20/20",
  "20/21",
  "2000",
  "2017",
  "2018",
  "2019",
  "2020",
  "2021",
  "2028",
  "23/4/2021",
  "24/4/2021",
  "2:30pm",
  "2a.m",
  "2a.m.",
  "2nd",
  "2p.m",
  "2p.m.",
  "3",
  "3/17/2021",
  "3/4/21",
  "3/8/18",
  "33",
  "333",
  "3:00",
  "3:00PM",
  "3:00pm",
  "3:30am",
  "3a.m",
  "3a.m.",
  "3p.m",
  "3p.m.",
  "3pm",
  "3rd",
  "3th",
  "4",
  "4/19",
  "4/2/2016",
  "4/21",
  "4PM",
  "4a.m",
  "4a.m.",
  "4p.m",
  "4p.m.",
  "4pm",
  "4th",
  "5",
  "5/17/2021",
  "5/27/2021",
  "5/7/21",
  "5/8/11",
  "5a.m",
  "5a.m.",
  "5p.m",
  "5p.m.",
  "5pm",
  "6",
  "6/6/2021",
  "6a.m",
  "6a.m.",
  "6p.m",
  "6p.m.",
  "6pm",
  "7",
  "7/7",
  "7/8",
  "7a.m",
  "7a.m.",
  "7p.m",
  "7p.m.",
  "8",
  "8)",
  "8-",
  "8-)",
  "8-D",
  "8-d",
  "8/01/20",
  "8/09/21",
  "8/18",
  "8/19",
  "8/8/20",
  "8/9/21",
  "8:00am",
  "8:20am",
  "8:20pm",
  "8D",
  "8a.m",
  "8a.m.",
  "8d",
  "8p.m",
  "8p.m.",
  "9",
  "9/7/18",
  "9/8",
  "9/9/11",
  "9:30am",
  "9a.m",
  "9a.m.",
  "9p.m",
  "9p.m.",
  "9pm",
  "9th",
  ":",
  ":'(",
  ":')",
  ":'-(",
  ":'-)",
  ":(",
  ":((",
  ":(((",
  ":()",
  ":)",
  ":))",
  ":)))",
  ":*",
  ":-(",
  ":-((",
  ":-(((",
  ":-)",
  ":-))",
  ":-)))",
  ":-*",
  ":-/",
  ":-0",
  ":-3",
  ":->",
  ":-D",
  ":-O",
  ":-P",
  ":-X",
  ":-]",
  ":-d",
  ":-o",
  ":-p",
  ":-x",
  ":-|",
  ":-}",
  ":/",
  ":0",
  ":00",
  ":1",
  ":3",
  ":>",
  ":D",
  ":O",
  ":P",
  ":X",
  ":]",
  ":d",
  ":o",
  ":o)",
  ":p",
  ":x",
  ":x)",
  ":|",
  ":}",
  ":\u2019(",
  ":\u2019)",
  ":\u2019-(",
  ":\u2019-)",
  ";",
  ";)",
  ";-)",
  ";-D",
  ";-X",
  ";-d",
  ";D",
  ";X",
  ";_;",
  ";d",
  "<",
  "<.<",
  "</3",
  "</d",
  "<3",
  "<33",
  "<333",
  "<d",
  "<dd",
  "<ddd",
  "<space>",
  "<xxxx>",
  "=",
  "=(",
  "=)",
  "=/",
  "=3",
  "=D",
  "=X",
  "=[",
  "=]",
  "=d",
  "=|",
  ">",
  ">.<",
  ">.>",
  ">:(",
  ">:o",
  ">:x",
  "><(((*>",
  "@",
  "@_@",
  "A",
  "ATE",
  "Adm",
  "Adm.",
  "Ai",
  "Ak",
  "Ak.",
  "Ala",
  "Ala.",
  "Alabama",
  "Alaska",
  "America",
  "Apr",
  "Apr.",
  "April",
  "Are",
  "Ariz",
  "Ariz.",
  "Arizona",
  "Ark",
  "Ark.",
  "Arkansas",
  "Aug",
  "Aug.",
  "August",
  "B",
  "Bros",
  "Bros.",
  "C",
  "C'm",
  "C++",
  "CUT",
  "Ca",
  "Calif",
  "Calif.",
  "California",
  "Can",
  "Cause",
  "Co",
  "Co.",
  "Colo",
  "Colo.",
  "Colorado",
  "Conn",
  "Conn.",
  "Connecticut",
  "Corp",
  "Corp.",
  "Cos",
  "Could",
  "Coz",
  "Cuz",
  "C\u2019m",
  "D",
  "D.",
  "D.C.",
  "DAY",
  "Dare",
  "Dec",
  "Dec.",
  "December",
  "Del",
  "Del.",
  "Delaware",
  "Did",
  "Do",
  "Does",
  "Doin",
  "Doin'",
  "Doin\u2019",
  "Dr",
  "Dr.",
  "E",
  "E.G.",
  "E.g",
  "E.g.",
  "EARLY",
  "ECT",
  "Early",
  "F",
  "Feb",
  "Feb.",
  "February",
  "Fla",
  "Fla.",
  "Florida",
  "G",
  "Ga",
  "Ga.",
  "Gen",
  "Gen.",
  "Georgia",
  "Give",
  "Goin",
  "Goin'",
  "Goin\u2019",
  "Gon",
  "Got",
  "Gov",
  "Gov.",
  "H",
  "Had",
  "Has",
  "Have",
  "Havin",
  "Havin'",
  "Havin\u2019",
  "He",
  "He's",
  "He\u2019s",
  "How",
  "How's",
  "How\u2019s",
  "I",
  "I.E.",
  "I.e",
  "I.e.",
  "ION",
  "Ia",
  "Ia.",
  "Id",
  "Id.",
  "Idaho",
  "Ill",
  "Ill.",
  "Illinois",
  "Inc",
  "Inc.",
  "Ind",
  "Ind.",
  "Indiana",
  "Iowa",
  "Is",
  "It",
  "It's",
  "It\u2019s",
  "J",
  "Jan",
  "Jan.",
  "January",
  "Jr",
  "Jr.",
  "Jul",
  "Jul.",
  "July",
  "Jun",
  "Jun.",
  "June",
  "K",
  "Kan",
  "Kan.",
  "Kans",
  "Kans.",
  "Kansas",
  "Kentucky",
  "Ky",
  "Ky.",
  "L",
  "La",
  "La.",
  "Let",
  "Let's",
  "Let\u2019s",
  "Louisiana",
  "Lovin",
  "Lovin'",
  "Lovin\u2019",
  "Ltd",
  "Ltd.",
  "M",
  "Ma'am",
  "Mar",
  "Mar.",
  "March",
  "Mass",
  "Mass.",
  "Massachusetts",
  "May",
  "May.",
  "Ma\u2019am",
  "Md",
  "Md.",
  "Messrs",
  "Messrs.",
  "Mich",
  "Mich.",
  "Michigan",
  "Might",
  "Minn",
  "Minn.",
  "Minnesota",
  "Miss",
  "Miss.",
  "Mississippi",
  "Mo",
  "Mo.",
  "Monday",
  "Mont",
  "Mont.",
  "Mount",
  "Mr",
  "Mr.",
  "Mrs",
  "Mrs.",
  "Ms",
  "Ms.",
  "Mt",
  "Mt.",
  "Must",
  "N",
  "N.C.",
  "N.D.",
  "N.H.",
  "N.J.",
  "N.M.",
  "N.Y.",
  "Neb",
  "Neb.",
  "Nebr",
  "Nebr.",
  "Nebraska",
  "Need",
  "Nev",
  "Nev.",
  "Nevada",
  "New Hampshire",
  "New Jersey",
  "New Mexico",
  "New York",
  "North Carolina",
  "North Dakota",
  "Not",
  "Nothin",
  "Nothin'",
  "Nothin\u2019",
  "Nov",
  "Nov.",
  "November",
  "Nuthin",
  "Nuthin'",
  "Nuthin\u2019",
  "O",
  "O'clock",
  "O.O",
  "O.o",
  "OFF",
  "O_O",
  "O_o",
  "Oct",
  "Oct.",
  "October",
  "Okla",
  "Okla.",
  "Oklahoma",
  "Ol",
  "Ol'",
  "Ol\u2019",
  "Ore",
  "Ore.",
  "Oregon",
  "Ought",
  "O\u2019clock",
  "P",
  "PM",
  "PREDICATE",
  "Pa",
  "Pa.",
  "Pennsylvania",
  "Ph",
  "Ph.D.",
  "Product",
  "Prof",
  "Prof.",
  "Q",
  "Qtr",
  "R",
  "REGION",
  "RLY",
  "ROOT",
  "Rep",
  "Rep.",
  "Rev",
  "Rev.",
  "S",
  "S.A",
  "S.C.",
  "SUBJECT",
  "SUNDAY",
  "Sen",
  "Sen.",
  "Sep",
  "Sep.",
  "Sept",
  "Sept.",
  "September",
  "Sha",
  "She",
  "She's",
  "She\u2019s",
  "Should",
  "Show",
  "Somethin",
  "Somethin'",
  "Somethin\u2019",
  "South Carolina",
  "St",
  "St.",
  "Start",
  "Stop",
  "T",
  "Tenn",
  "Tenn.",
  "Tennessee",
  "That",
  "That's",
  "That\u2019s",
  "There",
  "There's",
  "There\u2019s",
  "These",
  "These's",
  "These\u2019s",
  "They",
  "This",
  "This's",
  "This\u2019s",
  "Those",
  "Those's",
  "Those\u2019s",
  "U",
  "U.S.A",
  "USA",
  "V",
  "V.V",
  "V_V",
  "Va",
  "Va.",
  "Virginia",
  "W",
  "Was",
  "Wash",
  "Wash.",
  "Washington",
  "We",
  "Were",
  "What",
  "What's",
  "What\u2019s",
  "When",
  "When's",
  "When\u2019s",
  "Where",
  "Where's",
  "Where\u2019s",
  "Who",
  "Who's",
  "Who\u2019s",
  "Why",
  "Why's",
  "Why\u2019s",
  "Wis",
  "Wis.",
  "Wisconsin",
  "Wo",
  "Would",
  "X'x",
  "X'xxxx",
  "X++",
  "X.",
  "X.X",
  "X.X.",
  "X.X.X",
  "X.x",
  "X.x.",
  "XD",
  "XDD",
  "XX",
  "XXX",
  "XXXX",
  "X_X",
  "X_x",
  "Xx",
  "Xx'",
  "Xx'x",
  "Xx'xx",
  "Xx.",
  "Xx.X.",
  "Xxx",
  "Xxx'x",
  "Xxx.",
  "Xxxx",
  "Xxxx'",
  "Xxxx'x",
  "Xxxx.",
  "Xxxxx",
  "Xxxxx'",
  "Xxxxx'x",
  "Xxxxx.",
  "Xxxxx\u2019",
  "Xxxxx\u2019x",
  "Xxxx\u2019",
  "Xxxx\u2019x",
  "Xxx\u2019x",
  "Xx\u2019",
  "Xx\u2019x",
  "Xx\u2019xx",
  "X\u2019x",
  "X\u2019xxxx",
  "Y",
  "You",
  "[",
  "[-:",
  "[:",
  "[=",
  "\\",
  "\\\")",
  "\\n",
  "\\t",
  "\\x",
  "]",
  "]=",
  "^",
  "^_^",
  "^__^",
  "^___^",
  "_*)",
  "_-)",
  "_.)",
  "_<)",
  "_^)",
  "__-",
  "__^",
  "_\u00ac)",
  "_\u0ca0)",
  "a",
  "a.",
  "a.m",
  "a.m.",
  "about",
  "ace",
  "across",
  "adm",
  "adm.",
  "africa",
  "again",
  "ago",
  "ai",
  "ain",
  "air",
  "airing",
  "ak",
  "ak.",
  "aka",
  "ala",
  "ala.",
  "alaska",
  "all",
  "am",
  "america",
  "ams",
  "an.",
  "ana",
  "analysis",
  "and",
  "and/or",
  "ans",
  "antartica",
  "any",
  "aph",
  "appropriate",
  "apr",
  "apr.",
  "april",
  "aps",
  "ar.",
  "arab",
  "are",
  "argetina",
  "arh",
  "ariz",
  "ariz.",
  "ark",
  "ark.",
  "art",
  "ary",
  "ase",
  "ash",
  "ass",
  "assam",
  "ast",
  "at",
  "ata",
  "ate",
  "aug",
  "aug.",
  "august",
  "ave",
  "ay.",
  "b",
  "b.",
  "bad",
  "because",
  "before",
  "ber",
  "between",
  "bout",
  "br.",
  "bros",
  "bros.",
  "but",
  "by",
  "c",
  "c'm",
  "c++",
  "c.",
  "ca",
  "calif",
  "calif.",
  "california",
  "can",
  "cancelled",
  "cause",
  "ce>",
  "ch.",
  "chandigarh",
  "channel",
  "close",
  "co",
  "co.",
  "colo",
  "colo.",
  "come",
  "conn",
  "conn.",
  "corp",
  "corp.",
  "cos",
  "could",
  "coz",
  "ct.",
  "current",
  "cut",
  "cutoff",
  "cuz",
  "c\u2019m",
  "d",
  "d)",
  "d-",
  "d-)",
  "d-X",
  "d.",
  "d.c.",
  "d.d",
  "d.x",
  "d/d",
  "d/d/dd",
  "d/d/dddd",
  "d/dd",
  "d/dd/dd",
  "d/dd/dddd",
  "d:dd",
  "d:ddXX",
  "d:ddxx",
  "dX",
  "dXX",
  "d_d",
  "d_x",
  "dare",
  "data",
  "date",
  "dates",
  "day",
  "dd",
  "dd.dd.dddd",
  "dd.dddd",
  "dd/d",
  "dd/d/dd",
  "dd/d/dddd",
  "dd/dd",
  "dd/dd/dd",
  "dd/dd/dddd",
  "dd:ddxx",
  "ddXX",
  "ddd",
  "dddd",
  "ddx.x",
  "ddx.x.",
  "ddxx",
  "dec",
  "dec.",
  "december",
  "del",
  "del.",
  "delhi",
  "der",
  "did",
  "dle",
  "dm.",
  "do",
  "does",
  "doin",
  "doin'",
  "doing",
  "doin\u2019",
  "don",
  "dr",
  "dr.",
  "draw",
  "dx.x",
  "dx.x.",
  "dxx",
  "e",
  "e's",
  "e.",
  "e.g",
  "e.g.",
  "ear",
  "early",
  "east",
  "eb.",
  "ebr",
  "ec.",
  "eed",
  "een",
  "el.",
  "em",
  "en",
  "en.",
  "end",
  "enn",
  "enough",
  "ent",
  "ep.",
  "ept",
  "ere",
  "ers",
  "ese",
  "ev.",
  "everyday",
  "ext",
  "e\u2019s",
  "f",
  "f.",
  "feb",
  "feb.",
  "february",
  "first",
  "fla",
  "fla.",
  "florida",
  "for",
  "fourth",
  "from",
  "g",
  "g.",
  "ga",
  "ga.",
  "gap",
  "gaps",
  "gen",
  "gen.",
  "get",
  "ght",
  "give",
  "goal",
  "goin",
  "goin'",
  "going",
  "goin\u2019",
  "gon",
  "gonna",
  "got",
  "gov",
  "gov.",
  "graph",
  "gwalior",
  "h",
  "h.",
  "had",
  "haryana",
  "has",
  "hat",
  "have",
  "havin",
  "havin'",
  "having",
  "havin\u2019",
  "he",
  "he's",
  "hebbuli",
  "hen",
  "hey",
  "he\u2019s",
  "highly",
  "hin",
  "hio",
  "his",
  "hly",
  "how",
  "how's",
  "how\u2019s",
  "i",
  "i.",
  "i.e",
  "i.e.",
  "ia",
  "ia.",
  "ica",
  "ich",
  "id",
  "id.",
  "ida",
  "ide",
  "if.",
  "ift",
  "ill",
  "ill.",
  "in",
  "in'",
  "ina",
  "inc",
  "inc.",
  "ind",
  "ind.",
  "industry",
  "ine",
  "ing",
  "inn",
  "in\u2019",
  "ior",
  "ird",
  "is",
  "is.",
  "islamabad",
  "iss",
  "it",
  "it's",
  "it\u2019s",
  "ive",
  "iz.",
  "j",
  "j.",
  "jab",
  "jan",
  "jan.",
  "january",
  "jersey",
  "jhansi",
  "jharkhand",
  "jr",
  "jr.",
  "jul",
  "jul.",
  "july",
  "jun",
  "jun.",
  "june",
  "k",
  "k.",
  "kan",
  "kan.",
  "kans",
  "kans.",
  "karnataka",
  "kashmir",
  "kla",
  "ky",
  "ky.",
  "l",
  "l.",
  "la",
  "la.",
  "last",
  "led",
  "les",
  "let",
  "let's",
  "let\u2019s",
  "lhi",
  "lif",
  "ll",
  "ll.",
  "lo.",
  "london",
  "lot",
  "lovin",
  "lovin'",
  "loving",
  "lovin\u2019",
  "ltd",
  "ltd.",
  "m",
  "m.",
  "ma'am",
  "madam",
  "many",
  "mar",
  "mar.",
  "march",
  "mass",
  "mass.",
  "may",
  "may.",
  "ma\u2019am",
  "md",
  "md.",
  "me",
  "messrs",
  "messrs.",
  "mich",
  "mich.",
  "middle",
  "might",
  "minn",
  "minn.",
  "mir",
  "miss",
  "miss.",
  "mo",
  "mo.",
  "monday",
  "mont",
  "mont.",
  "month",
  "mr",
  "mr.",
  "mrs",
  "mrs.",
  "ms",
  "ms.",
  "mt",
  "mt.",
  "must",
  "my",
  "n",
  "n's",
  "n't",
  "n.",
  "n.c.",
  "n.d.",
  "n.h.",
  "n.j.",
  "n.m.",
  "n.y.",
  "na",
  "nc.",
  "nd.",
  "neb",
  "neb.",
  "nebr",
  "nebr.",
  "need",
  "nel",
  "net",
  "netsales",
  "nev",
  "nev.",
  "new",
  "next",
  "nia",
  "nn.",
  "north",
  "not",
  "nothin",
  "nothin'",
  "nothing",
  "nothin\u2019",
  "nov",
  "nov.",
  "ns.",
  "nsi",
  "nt",
  "nt.",
  "nth",
  "nue",
  "nuff",
  "nuthin",
  "nuthin'",
  "nuthin\u2019",
  "n\u2019s",
  "n\u2019t",
  "o",
  "o'clock",
  "o's",
  "o.",
  "o.0",
  "o.O",
  "o.o",
  "o_0",
  "o_O",
  "o_o",
  "oal",
  "ock",
  "oct",
  "oct.",
  "oes",
  "of",
  "of.",
  "off",
  "ohio",
  "oin",
  "okla",
  "okla.",
  "ol",
  "ol'",
  "old",
  "olo",
  "ol\u2019",
  "on",
  "ond",
  "one",
  "onn",
  "ont",
  "or",
  "order",
  "orders",
  "ore",
  "ore.",
  "orissa",
  "orp",
  "ort",
  "os.",
  "ose",
  "oss",
  "ought",
  "ous",
  "out",
  "ov.",
  "o\u2019clock",
  "o\u2019s",
  "p",
  "p.",
  "p.m",
  "p.m.",
  "pa",
  "pa.",
  "palestine",
  "paris",
  "patna",
  "ph",
  "ph.d.",
  "please",
  "plot",
  "pm",
  "pr.",
  "predicate",
  "present",
  "previous",
  "product",
  "prof",
  "prof.",
  "provide",
  "pt.",
  "punjab",
  "q",
  "q.",
  "qrt",
  "qtr",
  "quarter",
  "quater",
  "r",
  "r.",
  "rab",
  "raw",
  "rch",
  "re",
  "re.",
  "ree",
  "region",
  "rep",
  "rep.",
  "report",
  "rev",
  "rev.",
  "revenue",
  "ril",
  "ris",
  "riz",
  "rk.",
  "rly",
  "rof",
  "rom",
  "ros",
  "row",
  "rp.",
  "rs.",
  "rst",
  "rth",
  "s",
  "s's",
  "s.",
  "s.c.",
  "sales",
  "salesgap",
  "sam",
  "second",
  "sen",
  "sen.",
  "sep",
  "sep.",
  "sept",
  "sept.",
  "september",
  "sey",
  "sh.",
  "sha",
  "shall",
  "she",
  "she's",
  "she\u2019s",
  "shift",
  "should",
  "show",
  "side",
  "sis",
  "ska",
  "somethin",
  "somethin'",
  "something",
  "somethin\u2019",
  "south",
  "southi",
  "space",
  "srs",
  "ss.",
  "ssa",
  "st",
  "st.",
  "start",
  "stop",
  "store",
  "subject",
  "sunday",
  "s\u2019s",
  "t",
  "t's",
  "t.",
  "ta",
  "target",
  "tata",
  "td.",
  "teams",
  "tenn",
  "tenn.",
  "ter",
  "tes",
  "texas",
  "that",
  "that's",
  "that\u2019s",
  "the",
  "them",
  "there",
  "there's",
  "there\u2019s",
  "these",
  "these's",
  "these\u2019s",
  "they",
  "thi",
  "third",
  "this",
  "this's",
  "this\u2019s",
  "those",
  "those's",
  "those\u2019s",
  "three",
  "til",
  "till",
  "tna",
  "to",
  "today",
  "tomorrow",
  "ton",
  "top",
  "trend",
  "try",
  "two",
  "t\u2019s",
  "u",
  "u.",
  "u.k",
  "u.s",
  "u.s.a",
  "uct",
  "uff",
  "ug.",
  "ul.",
  "uld",
  "uli",
  "uly",
  "un.",
  "une",
  "until",
  "us",
  "usa",
  "use",
  "ust",
  "uth",
  "v",
  "v.",
  "v.s",
  "v.s.",
  "v.v",
  "v_v",
  "va",
  "va.",
  "ve",
  "vin",
  "virginia",
  "vs",
  "vs.",
  "w",
  "w's",
  "w.",
  "w/o",
  "was",
  "wash",
  "wash.",
  "washington",
  "we",
  "were",
  "what",
  "what's",
  "what\u2019s",
  "when",
  "when's",
  "when\u2019s",
  "where",
  "where's",
  "where\u2019s",
  "which",
  "who",
  "who's",
  "who\u2019s",
  "why",
  "why's",
  "why\u2019s",
  "will",
  "wis",
  "wis.",
  "without",
  "wo",
  "would",
  "w\u2019s",
  "x",
  "x'",
  "x'x",
  "x'xxxx",
  "x.",
  "x.X",
  "x.d",
  "x.x",
  "x.x.",
  "x/x",
  "xD",
  "xDD",
  "xX",
  "xXX",
  "x_X",
  "x_d",
  "x_x",
  "xas",
  "xd",
  "xdd",
  "xx",
  "xx'",
  "xx'x",
  "xx'xx",
  "xx.",
  "xxx",
  "xxx'x",
  "xxx/xx",
  "xxxx",
  "xxxx'",
  "xxxx'x",
  "xxxx\u2019",
  "xxxx\u2019x",
  "xxx\u2019x",
  "xx\u2019",
  "xx\u2019x",
  "xx\u2019xx",
  "x\u2019",
  "x\u2019x",
  "x\u2019xxxx",
  "x\ufe35x",
  "y",
  "y'",
  "y's",
  "y.",
  "year",
  "yesterday",
  "you",
  "yrs",
  "y\u2019",
  "y\u2019s",
  "z",
  "z.",
  "|",
  "}",
  "\u00a0",
  "\u00ac",
  "\u00ac_\u00ac",
  "\u00af",
  "\u00af\\(x)/\u00af",
  "\u00af\\(\u30c4)/\u00af",
  "\u00b0",
  "\u00e4",
  "\u00e4.",
  "\u00f6",
  "\u00f6.",
  "\u00fc",
  "\u00fc.",
  "\u0ca0",
  "\u0ca0_\u0ca0",
  "\u0ca0\ufe35\u0ca0",
  "\u2014",
  "\u2018",
  "\u2018S",
  "\u2018X",
  "\u2018s",
  "\u2018x",
  "\u2019",
  "\u2019-(",
  "\u2019-)",
  "\u2019Cause",
  "\u2019Cos",
  "\u2019Coz",
  "\u2019Cuz",
  "\u2019S",
  "\u2019X",
  "\u2019Xxx",
  "\u2019Xxxxx",
  "\u2019am",
  "\u2019bout",
  "\u2019cause",
  "\u2019cos",
  "\u2019coz",
  "\u2019cuz",
  "\u2019d",
  "\u2019em",
  "\u2019ll",
  "\u2019m",
  "\u2019nuff",
  "\u2019re",
  "\u2019s",
  "\u2019ve",
  "\u2019x",
  "\u2019xx",
  "\u2019xxx",
  "\u2019xxxx",
  "\u2019y",
  "\u2019\u2019",
  "\u2501",
  "\u253b",
  "\u253b\u2501\u253b",
  "\u256f",
  "\u25a1",
  "\ufe35",
  "\uff09"
]