{
  "lang":"en",
  "name":"pipeline",
  "version":"0.0.0",
  "spacy_version":">=3.1.1,<3.2.0",
  "description":"",
  "author":"",
  "email":"",
  "url":"",
  "license":"",
  "spacy_git_version":"ffaead8fe",
  "vectors":{
    "width":0,
    "vectors":0,
    "keys":0,
    "name":null
  },
  "labels":{
    "transformer":[

    ],
    "relation_extractor":[
      "SUBJECT-DATE",
      "SUBJECT-SUBJECT",
      "SUBJECT-REGION",
      "SUBJECT-PREDICATE"
    ]
  },
  "pipeline":[
    "transformer",
    "relation_extractor"
  ],
  "components":[
    "transformer",
    "relation_extractor"
  ],
  "disabled":[

  ],
  "performance":{
    "rel_micro_p":0.8869047619,
    "rel_micro_r":0.8922155689,
    "rel_micro_f":0.8895522388,
    "transformer_loss":0.0337987694,
    "relation_extractor_loss":3.5018648691
  }
}